Path: .
Working Copy Root Path: D:\JJBacktoBasics
URL: http://192.168.105.22/svn/JJBack2Basics/trunk/source/E2EMF
Relative URL: ^/trunk/source/E2EMF
Repository Root: http://192.168.105.22/svn/JJBack2Basics
Repository UUID: 689e6ab7-303c-7749-9cb2-9a885174513d
Revision: 2805
Node Kind: directory
Schedule: normal
Last Changed Author: haneep.cr
Last Changed Rev: 2805
Last Changed Date: 2015-03-18 12:18:17 +0530 (Wed, 18 Mar 2015)

